2.147863149193655549e-03 5.860142819030017547e-01 2.399228749541378325e-01
5.860142819029994232e-01 6.127662442547793034e+03 -8.258145584570696940e+01
2.399228749541380823e-01 -8.258145584570637254e+01 4.577917459721553683e+01
